<?xml version="1.0" encoding="UTF-8" standalone="no"?>
<!-- Created with Inkscape (http://www.inkscape.org/) -->

<svg
   width="24pt"
   height="24pt"
   viewBox="0 0 8.4666669 8.4666669"
   version="1.1"
   id="svg5"
   inkscape:version="1.1 (c4e8f9ed74, 2021-05-24)"
   sodipodi:docname="secure.svg"
   inkscape:export-filename="/home/noah/NoahProjects/InkscapeProjects/codeberg_pages/gymroutines/graphics/secure.png"
   inkscape:export-xdpi="1536.0001"
   inkscape:export-ydpi="1536.0001"
   xmlns:inkscape="http://www.inkscape.org/namespaces/inkscape"
   xmlns:sodipodi="http://sodipodi.sourceforge.net/DTD/sodipodi-0.dtd"
   xmlns="http://www.w3.org/2000/svg"
   xmlns:svg="http://www.w3.org/2000/svg">
  <sodipodi:namedview
     id="namedview7"
     pagecolor="#ffffff"
     bordercolor="#666666"
     borderopacity="1.0"
     inkscape:pageshadow="2"
     inkscape:pageopacity="0.0"
     inkscape:pagecheckerboard="true"
     inkscape:document-units="mm"
     showgrid="true"
     width="24pt"
     units="pt"
     inkscape:zoom="13.757813"
     inkscape:cx="-4.1794435"
     inkscape:cy="16.208972"
     inkscape:window-width="2560"
     inkscape:window-height="1012"
     inkscape:window-x="0"
     inkscape:window-y="32"
     inkscape:window-maximized="1"
     inkscape:current-layer="g1349">
    <inkscape:grid
       type="xygrid"
       id="grid16"
       units="pt"
       spacingx="0.35277779"
       spacingy="0.35277779"
       empspacing="4" />
  </sodipodi:namedview>
  <defs
     id="defs2" />
  <g
     inkscape:groupmode="layer"
     id="layer4"
     inkscape:label="bg" />
  <g
     inkscape:groupmode="layer"
     id="layer2"
     inkscape:label="shield"
     style="display:inline">
    <g
       style="fill:#000000"
       id="g1349"
       transform="scale(0.35277778)">
      <g
         id="g1333">
        <rect
           fill="none"
           height="24"
           width="24"
           id="rect1331"
           x="0"
           y="0" />
      </g>
      <g
         id="g1337"
         style="fill:#ffffff;fill-opacity:1">
        <path
           d="M 12,2 4,5 v 6.09 c 0,5.05 3.41,9.76 8,10.91 4.59,-1.15 8,-5.86 8,-10.91 V 5 Z"
           id="path1335"
           sodipodi:nodetypes="ccscscc"
           style="fill:#ffffff;fill-opacity:1" />
      </g>
      <g
         id="g2609"
         style="display:inline"
         transform="matrix(0.5,0,0,0.5,5.9999999,4.4999999)">
        <path
           id="rect1624"
           style="display:inline;fill:#000000;fill-opacity:1;stroke-width:2.66667;stroke-linecap:round;stroke-linejoin:round;stroke-miterlimit:4;stroke-dasharray:none;paint-order:markers fill stroke"
           d="M 16,4 C 9.3520004,4 4,9.3520004 4,16 h 2.6660156 c 0,-5.170668 4.1633164,-9.3339844 9.3339844,-9.3339844 1.61116,0 3.125243,0.4042158 4.445312,1.1171875 L 22.386719,5.8417969 C 20.538065,4.6803238 18.353416,4 16,4 Z M 26.158203,9.6132812 24.216797,11.554688 C 24.929769,12.874757 25.333984,14.38884 25.333984,16 H 28 c 0,-2.353416 -0.680324,-4.538065 -1.841797,-6.3867188 z"
           transform="scale(0.75)" />
        <path
           style="display:inline;fill:none;stroke:#000000;stroke-width:2;stroke-linecap:butt;stroke-linejoin:miter;stroke-miterlimit:4;stroke-dasharray:none;stroke-opacity:1"
           d="M 8.9999995,8.9999995 11.999998,11.999998 19.999999,3.9999998"
           id="path1607"
           sodipodi:nodetypes="ccc" />
        <g
           id="g758">
          <path
             id="rect648"
             style="fill:#673ab7;fill-opacity:1;stroke-width:0;stroke-linecap:round;stroke-linejoin:round;paint-order:markers fill stroke"
             d="M 6.6660156,17.333984 V 20 H 4 v 5.333984 H 6.6660156 V 28 H 9.3339844 V 24 H 22.666016 v 4 h 2.667968 V 25.333984 H 28 V 20 h -2.666016 v -2.666016 h -2.667968 v 4 H 9.3339844 v -4 z"
             transform="scale(0.75)" />
        </g>
        <rect
           style="display:inline;fill:#000000;fill-opacity:1;stroke:none;stroke-width:4;stroke-linecap:round;stroke-linejoin:round;stroke-miterlimit:4;stroke-dasharray:none;stroke-opacity:1;paint-order:markers fill stroke"
           id="rect1745"
           width="9.999999"
           height="1.9999999"
           x="6.999999"
           y="16" />
      </g>
    </g>
  </g>
</svg>
