<?xml version="1.0" encoding="UTF-8" standalone="no"?>
<svg
   height="24pt"
   id="svg1719"
   inkscape:version="1.1 (c4e8f9ed74, 2021-05-24)"
   sodipodi:docname="endict.svg"
   version="1.1"
   viewBox="0 0 23.999999 23.999998"
   width="24pt"
   xmlns:inkscape="http://www.inkscape.org/namespaces/inkscape"
   xmlns:sodipodi="http://sodipodi.sourceforge.net/DTD/sodipodi-0.dtd"
   xmlns:xlink="http://www.w3.org/1999/xlink"
   xmlns="http://www.w3.org/2000/svg"
   xmlns:svg="http://www.w3.org/2000/svg"
   xmlns:rdf="http://www.w3.org/1999/02/22-rdf-syntax-ns#"
   xmlns:cc="http://creativecommons.org/ns#"
   xmlns:dc="http://purl.org/dc/elements/1.1/">
  <style
     id="style1662" />
  <defs
     id="defs1713">
    <linearGradient
       id="linearGradient2039"
       inkscape:swatch="solid">
      <stop
         id="stop2037"
         offset="0"
         style="stop-color:#000000;stop-opacity:1;" />
    </linearGradient>
    <inkscape:path-effect
       effect="powerclip"
       flatten="false"
       hide_clip="false"
       id="path-effect1145"
       inverse="true"
       is_visible="true"
       lpeversion="1"
       message="Use fill-rule evenodd on &lt;b&gt;fill and stroke&lt;/b&gt; dialog if no flatten result after convert clip to paths." />
    <linearGradient
       id="linearGradient3066"
       inkscape:swatch="solid">
      <stop
         id="stop3064"
         offset="0"
         style="stop-color:#e91e63;stop-opacity:1;" />
    </linearGradient>
    <linearGradient
       id="linearGradient2584"
       inkscape:swatch="solid">
      <stop
         id="stop2582"
         offset="0"
         style="stop-color:#000000;stop-opacity:1;" />
    </linearGradient>
    <linearGradient
       id="linearGradient2578"
       inkscape:swatch="solid">
      <stop
         id="stop2576"
         offset="0"
         style="stop-color:#000000;stop-opacity:1;" />
    </linearGradient>
    <mask
       id="mask2747"
       maskUnits="userSpaceOnUse">
      <a
         id="a2751"
         transform="translate(-17.25,-4.5)">
        <path
           d="M 7.5,7.5 V 18.75 H 18.75 V 7.5 Z"
           id="path2749"
           inkscape:href="#path2722"
           inkscape:original="M 7.5 7.5 L 7.5 18.75 L 18.75 18.75 L 18.75 7.5 L 7.5 7.5 z "
           inkscape:radius="0"
           sodipodi:type="inkscape:offset"
           style="fill:none;stroke:#000000;stroke-width:4;stroke-linecap:square;stroke-linejoin:miter;stroke-miterlimit:4;stroke-dasharray:none;stroke-opacity:1"
           transform="translate(13.5,8.25)"
           xlink:href="#path2722" />
      </a>
    </mask>
    <clipPath
       clipPathUnits="userSpaceOnUse"
       id="clipPath2761">
      <path
         d="M 7.5,7.5 V 15 H 15 V 7.5 Z"
         id="path2763"
         style="fill:none;stroke:#000000;stroke-width:2;stroke-linecap:butt;stroke-linejoin:miter;stroke-miterlimit:4;stroke-dasharray:none;stroke-opacity:1" />
    </clipPath>
    <mask
       id="mask2787"
       maskUnits="userSpaceOnUse">
      <path
         d="m 7.5,7.5 h 3.75 V 18.75 H 7.5 V 7.5"
         id="path2789"
         style="fill:none;stroke:#000000;stroke-width:0.75px;stroke-linecap:square;stroke-linejoin:miter;stroke-opacity:1" />
    </mask>
    <clipPath
       clipPathUnits="userSpaceOnUse"
       id="clipPath2811">
      <path
         d="M 3.75,3.75 V 21 h 16.5 V 3 H 3.75 Z"
         id="path2813"
         style="fill:none;stroke:#000000;stroke-width:0.999998;stroke-linecap:butt;stroke-linejoin:miter;stroke-miterlimit:4;stroke-dasharray:none;stroke-opacity:1" />
    </clipPath>
    <mask
       id="mask2831"
       maskUnits="userSpaceOnUse">
      <path
         d="M 7.5,9.75 V 18 h 3.75 V 9.75 Z"
         id="path2833"
         style="fill:none;stroke:#000000;stroke-width:0.75px;stroke-linecap:butt;stroke-linejoin:miter;stroke-opacity:1" />
    </mask>
    <clipPath
       clipPathUnits="userSpaceOnUse"
       id="clipPath1421">
      <circle
         cx="12"
         cy="12"
         id="circle1423"
         r="3"
         style="fill:#ff03f9;stroke-width:0.5" />
    </clipPath>
    <clipPath
       clipPathUnits="userSpaceOnUse"
       id="clipPath1600">
      <path
         d="m 14,12 h 4 l 2,-2 h -8 l 2,2"
         id="path1602"
         style="fill:#000300;fill-opacity:1;stroke:none;stroke-width:1px;stroke-linecap:butt;stroke-linejoin:miter;stroke-opacity:1" />
    </clipPath>
    <clipPath
       clipPathUnits="userSpaceOnUse"
       id="clipPath1662">
      <path
         d="m 12,5.25 c -3.7395,0 -6.75,3.0105 -6.75,6.75 0,3.7395 3.0105,6.75 6.75,6.75 3.7395,0 6.75,-3.0105 6.75,-6.75 C 18.75,8.2605 15.7395,5.25 12,5.25 Z M 12,6 c 3.324,0 6,2.676 6,6 0,3.324 -2.676,6 -6,6 C 8.676,18 6,15.324 6,12 6,8.676 8.676,6 12,6 Z"
         id="path1664"
         style="display:inline;fill:#000300;fill-opacity:1;stroke:none;stroke-width:2.32379;stroke-linecap:butt;stroke-linejoin:round;stroke-miterlimit:4;stroke-dasharray:none;stroke-opacity:1" />
    </clipPath>
    <clipPath
       clipPathUnits="userSpaceOnUse"
       id="clipPath1672">
      <rect
         height="6.75"
         id="rect1674"
         rx="0"
         ry="0"
         style="fill:#000300;fill-opacity:0.312564;stroke:none;stroke-width:0.999998;stroke-linecap:butt;stroke-linejoin:round;stroke-miterlimit:4;stroke-dasharray:none;stroke-opacity:1"
         width="13.5"
         x="5.25"
         y="5.25" />
    </clipPath>
    <clipPath
       clipPathUnits="userSpaceOnUse"
       id="clipPath1682">
      <rect
         clip-path="url(#clipPath1672)"
         height="13.5"
         id="rect1684"
         rx="6.75"
         ry="6.75"
         style="fill:#ff0300;fill-opacity:0.312564;stroke:none;stroke-width:1;stroke-linecap:butt;stroke-linejoin:round;stroke-miterlimit:4;stroke-dasharray:none;stroke-opacity:1"
         width="13.5"
         x="5.25"
         y="5.25" />
    </clipPath>
    <clipPath
       clipPathUnits="userSpaceOnUse"
       id="clipPath1920">
      <circle
         cx="12"
         cy="12"
         id="circle1922"
         r="2.25"
         style="display:inline;fill:#000000;fill-opacity:0.997319;stroke:none;stroke-width:0.999998;stroke-linecap:butt;stroke-linejoin:round;stroke-miterlimit:4;stroke-dasharray:none;stroke-opacity:1" />
    </clipPath>
    <clipPath
       clipPathUnits="userSpaceOnUse"
       id="clipPath1662-3">
      <path
         d="m 12,5.25 c -3.7395,0 -6.75,3.0105 -6.75,6.75 0,3.7395 3.0105,6.75 6.75,6.75 3.7395,0 6.75,-3.0105 6.75,-6.75 C 18.75,8.2605 15.7395,5.25 12,5.25 Z M 12,6 c 3.324,0 6,2.676 6,6 0,3.324 -2.676,6 -6,6 C 8.676,18 6,15.324 6,12 6,8.676 8.676,6 12,6 Z"
         id="path1664-5"
         style="display:inline;fill:#000300;fill-opacity:1;stroke:none;stroke-width:2.32379;stroke-linecap:butt;stroke-linejoin:round;stroke-miterlimit:4;stroke-dasharray:none;stroke-opacity:1" />
    </clipPath>
    <clipPath
       clipPathUnits="userSpaceOnUse"
       id="clipPath1173">
      <path
         clip-path="url(#clipPath1662-3)"
         d="M 6.75,9.75 4.5,12 V 5.25 h 15 V 12 L 17.25,9.75 Z"
         id="path1175"
         style="display:inline;fill:#000300;fill-opacity:1;stroke:none;stroke-width:0.75px;stroke-linecap:butt;stroke-linejoin:miter;stroke-opacity:1" />
    </clipPath>
    <clipPath
       clipPathUnits="userSpaceOnUse"
       id="clipPath1181">
      <path
         d="M 8.2500002,6.75 12,10.5 15.75,6.75 13.5,6 h -3 L 8.2500002,6.75"
         id="path1183"
         style="fill:#ba1e63;fill-opacity:1;stroke:none;stroke-width:0.75px;stroke-linecap:butt;stroke-linejoin:miter;stroke-opacity:1" />
    </clipPath>
    <clipPath
       clipPathUnits="userSpaceOnUse"
       id="clipPath1141">
      <path
         d="m 13.000001,21.000001 3,3 3,-3 h -6"
         id="path1143"
         style="display:block;fill:#000000;fill-opacity:1;stroke:none;stroke-width:1px;stroke-linecap:butt;stroke-linejoin:miter;stroke-opacity:1" />
      <path
         class="powerclip"
         d="M 4.6308594,16 H 27.369141 V 30 H 4.6308594 Z m 8.3691416,5.000001 3,3 3,-3 h -6"
         id="lpe_path-effect1145"
         style="fill:#000000;fill-opacity:1;stroke:none;stroke-width:1px;stroke-linecap:butt;stroke-linejoin:miter;stroke-opacity:1" />
    </clipPath>
  </defs>
  <sodipodi:namedview
     bordercolor="#666666"
     borderopacity="1.0"
     id="base"
     inkscape:current-layer="layer2"
     inkscape:cx="15.109375"
     inkscape:cy="15.84375"
     inkscape:document-rotation="0"
     inkscape:document-units="pt"
     inkscape:lockguides="false"
     inkscape:pagecheckerboard="false"
     inkscape:pageopacity="1"
     inkscape:pageshadow="2"
     inkscape:snap-global="true"
     inkscape:window-height="1012"
     inkscape:window-maximized="1"
     inkscape:window-width="2560"
     inkscape:window-x="0"
     inkscape:window-y="32"
     inkscape:zoom="32"
     pagecolor="#ffffff"
     scale-x="1"
     showgrid="true"
     units="pt">
    <inkscape:grid
       dotted="false"
       empspacing="4"
       id="grid1929"
       originx="0"
       originy="0"
       type="xygrid"
       visible="true"
       units="pt"
       spacingx="0.99999994"
       spacingy="0.99999994" />
  </sodipodi:namedview>
  <metadata
     id="metadata1716">
    <rdf:RDF>
      <cc:Work
         rdf:about="">
        <dc:format>image/svg+xml</dc:format>
        <dc:type
           rdf:resource="http://purl.org/dc/dcmitype/StillImage" />
      </cc:Work>
    </rdf:RDF>
  </metadata>
  <g
     inkscape:groupmode="layer"
     id="layer2"
     inkscape:label="bg"
     style="display:inline">
    <rect
       style="display:inline;fill:#ffffff;fill-opacity:1;stroke:none;stroke-width:2;paint-order:markers fill stroke"
       id="rect1763"
       width="24"
       height="23.999998"
       x="9.3469731e-07"
       y="0"
       rx="0"
       ry="0" />
    <rect
       style="fill:#000000;fill-opacity:0;stroke:none;stroke-width:2;paint-order:markers fill stroke"
       id="rect1351"
       width="23.999998"
       height="23.999998"
       x="0"
       y="0"
       rx="1.14e-06"
       ry="1.14e-06" />
    <path
       id="rect1769"
       style="fill:#010101;fill-opacity:1;stroke-width:0.133333;paint-order:markers fill stroke"
       d="M 5.3339844,4 C 4.5953177,4 4,4.5953177 4,5.3339844 V 24.666016 c 0,-1.107999 0.8920017,-2 2,-2 h 20 c 1.107997,0 2,0.892001 2,2 V 5.3339844 C 28,4.5953177 27.404682,4 26.666016,4 Z M 6.6660156,6.6660156 H 25.333984 L 25.333332,22.666665 H 6.6653634 Z"
       transform="scale(0.75)"
       sodipodi:nodetypes="sscsscsssccccc" />
    <rect
       style="fill:#000000;fill-opacity:1;stroke-width:0.0999997;paint-order:markers fill stroke"
       id="rect5759"
       width="9.999999"
       height="1.9999994"
       x="7"
       y="7"
       rx="1.02e-06"
       ry="1.02e-06" />
    <rect
       style="display:inline;fill:#000000;fill-opacity:1;stroke-width:0.0894425;paint-order:markers fill stroke"
       id="rect5759-3"
       width="8"
       height="1.9999994"
       x="6.999999"
       y="11"
       rx="8.1600007e-07"
       ry="1.02e-06" />
  </g>
  <g
     inkscape:groupmode="layer"
     id="layer1"
     inkscape:label="icon"
     style="display:inline">
    <path
       id="rect1319-3-6"
       style="display:inline;fill:#673ab7;fill-opacity:1;stroke:none;stroke-width:0.0314268;stroke-linecap:round;stroke-linejoin:round;stroke-miterlimit:4;stroke-dasharray:none;stroke-opacity:1;paint-order:markers fill stroke"
       d="M 6 22.666016 C 4.8920016 22.666016 4 23.558017 4 24.666016 L 4 27.333984 C 4 27.703316 4.2966835 28 4.6660156 28 L 27.333984 28 C 27.703316 28 28 27.703316 28 27.333984 L 28 24.666016 C 28 23.558017 27.107998 22.666016 26 22.666016 L 6 22.666016 z "
       transform="scale(0.75)" />
  </g>
  <g
     inkscape:groupmode="layer"
     id="layer3"
     inkscape:label="fg"
     style="display:inline" />
  <g
     inkscape:groupmode="layer"
     id="layer12"
     inkscape:label="Keyline"
     style="display:none"
     sodipodi:insensitive="true">
    <g
       inkscape:groupmode="layer"
       id="layer13"
       inkscape:label="cross"
       style="display:none"
       sodipodi:insensitive="true">
      <path
         style="fill:none;stroke:#808080;stroke-width:0.1;stroke-linecap:butt;stroke-linejoin:miter;stroke-miterlimit:4;stroke-dasharray:none;stroke-opacity:1"
         d="M 0,23.999998 23.999998,0"
         id="path1310" />
      <path
         style="fill:none;stroke:#808080;stroke-width:0.1;stroke-linecap:butt;stroke-linejoin:miter;stroke-miterlimit:4;stroke-dasharray:none;stroke-opacity:1"
         d="M 0,0 23.999998,23.999998"
         id="path1312" />
    </g>
    <g
       inkscape:groupmode="layer"
       id="layer15"
       inkscape:label="Square"
       style="display:inline"
       sodipodi:insensitive="true">
      <rect
         style="opacity:1;fill:none;stroke:#808080;stroke-width:0.0999997;stroke-linecap:round;stroke-linejoin:round;stroke-miterlimit:4;stroke-dasharray:none;stroke-opacity:1;paint-order:markers fill stroke"
         id="rect1319"
         width="17.999998"
         height="17.999998"
         x="2.9999998"
         y="2.9999998"
         rx="1"
         ry="1" />
    </g>
    <g
       inkscape:groupmode="layer"
       id="layer14"
       inkscape:label="circle"
       style="display:none"
       sodipodi:insensitive="true">
      <rect
         style="fill:none;stroke:#808080;stroke-width:0.0999997;stroke-linecap:round;stroke-linejoin:round;stroke-miterlimit:4;stroke-dasharray:none;stroke-opacity:1;paint-order:markers fill stroke"
         id="rect1328"
         width="19.999998"
         height="19.999998"
         x="1.9999999"
         y="1.9999999"
         rx="9.999999"
         ry="9.999999" />
    </g>
    <g
       inkscape:groupmode="layer"
       id="layer16"
       inkscape:label="H Rect"
       style="display:none"
       sodipodi:insensitive="true">
      <rect
         style="display:inline;fill:none;stroke:#808080;stroke-width:0.0999997;stroke-linecap:round;stroke-linejoin:round;stroke-miterlimit:4;stroke-dasharray:none;stroke-opacity:1;paint-order:markers fill stroke"
         id="rect1333"
         width="19.999998"
         height="15.999999"
         x="1.9999999"
         y="3.9999998"
         rx="0.99999994"
         ry="0.99999994" />
    </g>
    <g
       inkscape:groupmode="layer"
       id="layer17"
       inkscape:label="V Rect"
       style="display:none"
       sodipodi:insensitive="true">
      <rect
         style="fill:none;stroke:#808080;stroke-width:0.0999997;stroke-linecap:round;stroke-linejoin:round;stroke-miterlimit:4;stroke-dasharray:none;stroke-opacity:1;paint-order:markers fill stroke"
         id="rect1337"
         width="15.999999"
         height="19.999998"
         x="3.9999998"
         y="1.9999999"
         rx="0.99999994"
         ry="0.99999994" />
    </g>
  </g>
</svg>
